<svg width="32" height="32" viewBox="0 0 32 32" fill="none" xmlns="http://www.w3.org/2000/svg">
<g clip-path="url(#clip0_3386_1714)">
<path d="M9.04343 14.5531H10.88C11.0247 15.0566 11.3293 15.4994 11.7478 15.8146C12.1663 16.1298 12.676 16.3002 13.2 16.3002C13.7239 16.3002 14.2336 16.1298 14.6521 15.8146C15.0706 15.4994 15.3752 15.0566 15.52 14.5531H22.9565C23.141 14.5531 23.3179 14.4798 23.4484 14.3493C23.5788 14.2189 23.6521 14.0419 23.6521 13.8574C23.6521 13.6729 23.5788 13.496 23.4484 13.3655C23.3179 13.235 23.141 13.1618 22.9565 13.1618H15.5339C15.3891 12.6582 15.0845 12.2154 14.666 11.9002C14.2475 11.5851 13.7378 11.4146 13.2139 11.4146C12.6899 11.4146 12.1802 11.5851 11.7617 11.9002C11.3432 12.2154 11.0386 12.6582 10.8939 13.1618H9.04343C8.85893 13.1618 8.68199 13.235 8.55153 13.3655C8.42107 13.496 8.34778 13.6729 8.34778 13.8574C8.34778 14.0419 8.42107 14.2189 8.55153 14.3493C8.68199 14.4798 8.85893 14.5531 9.04343 14.5531ZM13.2173 12.8139C13.4237 12.8139 13.6255 12.8751 13.7971 12.9898C13.9687 13.1044 14.1024 13.2674 14.1814 13.4581C14.2604 13.6488 14.281 13.8586 14.2408 14.061C14.2005 14.2634 14.1011 14.4493 13.9552 14.5953C13.8093 14.7412 13.6233 14.8406 13.4209 14.8808C13.2185 14.9211 13.0087 14.9004 12.818 14.8215C12.6274 14.7425 12.4644 14.6087 12.3497 14.4371C12.2351 14.2655 12.1739 14.0638 12.1739 13.8574C12.1757 13.5812 12.2862 13.3169 12.4815 13.1216C12.6768 12.9263 12.9412 12.8158 13.2173 12.8139Z" fill="#E5E0FC"/>
<path d="M22.9565 20.2296H21.106C20.9613 19.726 20.6567 19.2832 20.2382 18.9681C19.8197 18.6529 19.31 18.4824 18.786 18.4824C18.2621 18.4824 17.7524 18.6529 17.3339 18.9681C16.9154 19.2832 16.6108 19.726 16.466 20.2296H9.04343C8.85893 20.2296 8.68199 20.3029 8.55153 20.4333C8.42107 20.5638 8.34778 20.7407 8.34778 20.9252C8.34778 21.1097 8.42107 21.2867 8.55153 21.4171C8.68199 21.5476 8.85893 21.6209 9.04343 21.6209H16.466C16.6108 22.1244 16.9154 22.5672 17.3339 22.8824C17.7524 23.1976 18.2621 23.368 18.786 23.368C19.31 23.368 19.8197 23.1976 20.2382 22.8824C20.6567 22.5672 20.9613 22.1244 21.106 21.6209H22.9565C23.141 21.6209 23.3179 21.5476 23.4484 21.4171C23.5788 21.2867 23.6521 21.1097 23.6521 20.9252C23.6521 20.7407 23.5788 20.5638 23.4484 20.4333C23.3179 20.3029 23.141 20.2296 22.9565 20.2296ZM18.7826 21.9687C18.5762 21.9687 18.3744 21.9075 18.2028 21.7928C18.0312 21.6782 17.8975 21.5152 17.8185 21.3245C17.7395 21.1339 17.7189 20.9241 17.7591 20.7216C17.7994 20.5192 17.8988 20.3333 18.0447 20.1874C18.1906 20.0414 18.3766 19.9421 18.579 19.9018C18.7814 19.8615 18.9912 19.8822 19.1819 19.9612C19.3726 20.0402 19.5355 20.1739 19.6502 20.3455C19.7648 20.5171 19.826 20.7188 19.826 20.9252C19.826 21.202 19.7161 21.4674 19.5204 21.6631C19.3247 21.8588 19.0593 21.9687 18.7826 21.9687Z" fill="#E5E0FC"/>
<path d="M13.2174 14.2052C14.1779 14.2052 14.9565 13.4266 14.9565 12.4661C14.9565 11.5056 14.1779 10.7269 13.2174 10.7269C12.2569 10.7269 11.4783 11.5056 11.4783 12.4661C11.4783 13.4266 12.2569 14.2052 13.2174 14.2052Z" fill="#AC7FFF"/>
<path d="M18.7826 21.2731C19.7431 21.2731 20.5217 20.4944 20.5217 19.5339C20.5217 18.5734 19.7431 17.7948 18.7826 17.7948C17.8221 17.7948 17.0435 18.5734 17.0435 19.5339C17.0435 20.4944 17.8221 21.2731 18.7826 21.2731Z" fill="#AC7FFF"/>
<path d="M22.9565 11.7705H15.5339C15.3891 11.2669 15.0845 10.8241 14.666 10.509C14.2475 10.1938 13.7378 10.0233 13.2139 10.0233C12.6899 10.0233 12.1802 10.1938 11.7617 10.509C11.3432 10.8241 11.0386 11.2669 10.8939 11.7705H9.04343C8.85893 11.7705 8.68199 11.8438 8.55153 11.9742C8.42107 12.1047 8.34778 12.2816 8.34778 12.4661C8.34778 12.6506 8.42107 12.8276 8.55153 12.958C8.68199 13.0885 8.85893 13.1618 9.04343 13.1618H10.88C11.0247 13.6653 11.3293 14.1081 11.7478 14.4233C12.1663 14.7385 12.676 14.9089 13.2 14.9089C13.7239 14.9089 14.2336 14.7385 14.6521 14.4233C15.0706 14.1081 15.3752 13.6653 15.52 13.1618H22.9565C23.141 13.1618 23.3179 13.0885 23.4484 12.958C23.5788 12.8276 23.6521 12.6506 23.6521 12.4661C23.6521 12.2816 23.5788 12.1047 23.4484 11.9742C23.3179 11.8438 23.141 11.7705 22.9565 11.7705ZM13.2173 13.5096C13.011 13.5096 12.8092 13.4484 12.6376 13.3337C12.466 13.2191 12.3323 13.0561 12.2533 12.8654C12.1743 12.6748 12.1537 12.465 12.1939 12.2625C12.2342 12.0601 12.3336 11.8742 12.4795 11.7283C12.6254 11.5823 12.8114 11.483 13.0138 11.4427C13.2162 11.4024 13.426 11.4231 13.6167 11.5021C13.8073 11.581 13.9703 11.7148 14.085 11.8864C14.1996 12.058 14.2608 12.2597 14.2608 12.4661C14.2608 12.7429 14.1509 13.0083 13.9552 13.204C13.7595 13.3997 13.4941 13.5096 13.2173 13.5096Z" fill="#341472"/>
<path d="M22.9565 18.8383H21.106C20.9613 18.3347 20.6567 17.8919 20.2382 17.5768C19.8197 17.2616 19.31 17.0911 18.786 17.0911C18.2621 17.0911 17.7524 17.2616 17.3339 17.5768C16.9154 17.8919 16.6108 18.3347 16.466 18.8383H9.04343C8.85893 18.8383 8.68199 18.9116 8.55153 19.042C8.42107 19.1725 8.34778 19.3494 8.34778 19.5339C8.34778 19.7184 8.42107 19.8954 8.55153 20.0258C8.68199 20.1563 8.85893 20.2296 9.04343 20.2296H16.466C16.6108 20.7331 16.9154 21.1759 17.3339 21.4911C17.7524 21.8063 18.2621 21.9767 18.786 21.9767C19.31 21.9767 19.8197 21.8063 20.2382 21.4911C20.6567 21.1759 20.9613 20.7331 21.106 20.2296H22.9565C23.141 20.2296 23.3179 20.1563 23.4484 20.0258C23.5788 19.8954 23.6521 19.7184 23.6521 19.5339C23.6521 19.3494 23.5788 19.1725 23.4484 19.042C23.3179 18.9116 23.141 18.8383 22.9565 18.8383ZM18.7826 20.5774C18.5762 20.5774 18.3744 20.5162 18.2028 20.4015C18.0312 20.2869 17.8975 20.1239 17.8185 19.9332C17.7395 19.7426 17.7189 19.5328 17.7591 19.3304C17.7994 19.1279 17.8988 18.942 18.0447 18.7961C18.1906 18.6501 18.3766 18.5508 18.579 18.5105C18.7814 18.4702 18.9912 18.4909 19.1819 18.5699C19.3726 18.6489 19.5355 18.7826 19.6502 18.9542C19.7648 19.1258 19.826 19.3275 19.826 19.5339C19.826 19.8107 19.7161 20.0761 19.5204 20.2718C19.3247 20.4675 19.0593 20.5774 18.7826 20.5774Z" fill="#341472"/>
<path d="M0.695675 16.6965C0.880173 16.6965 1.05711 16.6232 1.18757 16.4927C1.31804 16.3623 1.39133 16.1853 1.39133 16.0008C1.39238 15.3799 1.43188 14.7596 1.50959 14.1435L4.59133 13.0165C4.69274 12.9807 4.78447 12.9218 4.85931 12.8446C4.93414 12.7673 4.99005 12.6738 5.02263 12.5713C5.2289 11.9155 5.49434 11.2799 5.81567 10.6722C5.86347 10.576 5.88835 10.47 5.88835 10.3626C5.88835 10.2552 5.86347 10.1492 5.81567 10.053L4.42437 7.07563C5.18841 6.08903 6.07429 5.20315 7.06089 4.43911L10.0383 5.83041C10.1345 5.87821 10.2404 5.90309 10.3478 5.90309C10.4553 5.90309 10.5612 5.87821 10.6574 5.83041C11.2657 5.5103 11.9012 5.24491 12.5565 5.03737C12.659 5.00479 12.7526 4.94888 12.8298 4.87405C12.9071 4.79921 12.9659 4.70748 13.0018 4.60607L14.1287 1.52433C15.3618 1.36433 16.6104 1.36433 17.8435 1.52433L18.9844 4.59215C19.0202 4.69357 19.079 4.7853 19.1563 4.86014C19.2335 4.93497 19.3271 4.99088 19.4296 5.02346C20.0849 5.231 20.7204 5.49639 21.3287 5.8165C21.4249 5.8643 21.5309 5.88917 21.6383 5.88917C21.7457 5.88917 21.8517 5.8643 21.9478 5.8165L24.9252 4.4252C25.9118 5.18924 26.7977 6.07512 27.5618 7.06172L26.1705 10.0391C26.1227 10.1353 26.0978 10.2413 26.0978 10.3487C26.0978 10.4561 26.1227 10.562 26.1705 10.6582C26.4918 11.266 26.7572 11.9016 26.9635 12.5574C26.9961 12.6599 27.052 12.7534 27.1268 12.8307C27.2017 12.9079 27.2934 12.9668 27.3948 13.0026L30.8731 14.2687C30.9589 14.3002 31.0502 14.3145 31.1416 14.3107C31.233 14.307 31.3227 14.2853 31.4057 14.2469C31.4888 14.2084 31.5634 14.154 31.6254 14.0867C31.6873 14.0195 31.7355 13.9406 31.767 13.8548C31.7985 13.7689 31.8128 13.6776 31.809 13.5863C31.8053 13.4949 31.7836 13.4051 31.7452 13.3221C31.7067 13.2391 31.6523 13.1644 31.585 13.1025C31.5178 13.0405 31.4389 12.9924 31.3531 12.9608L28.2018 11.8269C28.0228 11.3164 27.8138 10.817 27.5757 10.3313L28.967 7.28433C29.0178 7.17255 29.0381 7.04931 29.0259 6.92713C29.0137 6.80494 28.9694 6.68817 28.8974 6.58867C27.9265 5.25491 26.7529 4.08129 25.4192 3.11041C25.3197 3.03845 25.2029 2.99411 25.0807 2.98189C24.9585 2.96968 24.8353 2.99002 24.7235 3.04085L21.6765 4.43215C21.1887 4.19143 20.687 3.98004 20.1739 3.79911L19.0261 0.640848C18.9827 0.52428 18.9088 0.42149 18.8121 0.343185C18.7155 0.264881 18.5996 0.213926 18.4765 0.195631C16.8355 -0.0614668 15.1645 -0.0614668 13.5235 0.195631C13.4005 0.213926 13.2846 0.264881 13.1879 0.343185C13.0913 0.42149 13.0174 0.52428 12.9739 0.640848L11.8261 3.79911C11.3156 3.97803 10.8162 4.18709 10.3305 4.4252L7.2835 3.03389C7.17172 2.98306 7.04848 2.96272 6.9263 2.97494C6.80412 2.98716 6.68735 3.0315 6.58785 3.10346C5.25408 4.07433 4.08046 5.24795 3.10959 6.58172C3.03763 6.68121 2.99329 6.79799 2.98107 6.92017C2.96885 7.04235 2.98919 7.16559 3.04002 7.27737L4.43133 10.3243C4.18936 10.8116 3.97794 11.3134 3.79828 11.8269L0.640022 12.9748C0.523454 13.0182 0.420664 13.0921 0.342359 13.1887C0.264055 13.2854 0.213101 13.4013 0.194805 13.5243C0.0637499 14.3433 -0.00138664 15.1715 2.23765e-05 16.0008C2.23765e-05 16.1853 0.0733141 16.3623 0.203774 16.4927C0.334234 16.6232 0.511176 16.6965 0.695675 16.6965Z" fill="#341472"/>
<path d="M31.3044 15.3043C31.1199 15.3043 30.9429 15.3776 30.8125 15.5081C30.682 15.6385 30.6087 15.8155 30.6087 16C30.6077 16.621 30.5682 17.2413 30.4905 17.8574L27.4087 18.9843C27.3073 19.0201 27.2156 19.079 27.1407 19.1562C27.0659 19.2335 27.01 19.327 26.9774 19.4295C26.7712 20.0853 26.5057 20.721 26.1844 21.3287C26.1366 21.4249 26.1117 21.5308 26.1117 21.6382C26.1117 21.7456 26.1366 21.8516 26.1844 21.9478L27.5757 24.9252C26.8116 25.9118 25.9258 26.7977 24.9392 27.5617L21.9618 26.1704C21.8656 26.1226 21.7596 26.0977 21.6522 26.0977C21.5448 26.0977 21.4388 26.1226 21.3426 26.1704C20.7344 26.4905 20.0988 26.7559 19.4435 26.9635C19.341 26.996 19.2475 27.0519 19.1702 27.1268C19.093 27.2016 19.0341 27.2933 18.9983 27.3948L17.8713 30.4765C16.6383 30.6365 15.3897 30.6365 14.1566 30.4765L13.0157 27.4087C12.9799 27.3073 12.921 27.2155 12.8438 27.1407C12.7665 27.0659 12.673 27.0099 12.5705 26.9774C11.9152 26.7698 11.2796 26.5044 10.6713 26.1843C10.5751 26.1365 10.4692 26.1116 10.3618 26.1116C10.2544 26.1116 10.1484 26.1365 10.0522 26.1843L7.07482 27.5756C6.08822 26.8116 5.20234 25.9257 4.4383 24.9391L5.8296 21.9617C5.8774 21.8655 5.90228 21.7596 5.90228 21.6521C5.90228 21.5447 5.8774 21.4388 5.8296 21.3426C5.50827 20.7349 5.24283 20.0992 5.03656 19.4435C5.00398 19.341 4.94807 19.2474 4.87324 19.1701C4.7984 19.0929 4.70667 19.0341 4.60525 18.9982L1.12699 17.7321C1.04112 17.7006 0.949881 17.6863 0.858484 17.6901C0.767086 17.6938 0.677321 17.7155 0.594314 17.754C0.511306 17.7924 0.436682 17.8468 0.374701 17.9141C0.312721 17.9814 0.264599 18.0602 0.233081 18.1461C0.201564 18.2319 0.187269 18.3232 0.191013 18.4146C0.194757 18.506 0.216467 18.5957 0.254902 18.6787C0.293338 18.7617 0.347746 18.8364 0.415022 18.8984C0.482297 18.9603 0.561121 19.0085 0.646994 19.04L3.7983 20.1739C3.97596 20.6849 4.18505 21.1844 4.42439 21.6695L3.03308 24.7165C2.98225 24.8283 2.96191 24.9515 2.97413 25.0737C2.98634 25.1959 3.03069 25.3126 3.10265 25.4121C4.07352 26.7459 5.24714 27.9195 6.58091 28.8904C6.6804 28.9624 6.79718 29.0067 6.91936 29.0189C7.04154 29.0311 7.16478 29.0108 7.27656 28.96L10.3235 27.5687C10.8092 27.8068 11.3087 28.0158 11.8192 28.1948L12.967 31.353C13.0104 31.4696 13.0843 31.5724 13.181 31.6507C13.2776 31.729 13.3935 31.7799 13.5166 31.7982C15.1574 32.058 16.8288 32.058 18.4696 31.7982C18.5926 31.7799 18.7085 31.729 18.8052 31.6507C18.9018 31.5724 18.9757 31.4696 19.0192 31.353L20.174 28.2017C20.6845 28.0228 21.1839 27.8137 21.6696 27.5756L24.7166 28.9669C24.8283 29.0178 24.9516 29.0381 25.0738 29.0259C25.1959 29.0137 25.3127 28.9693 25.4122 28.8974C26.746 27.9265 27.9196 26.7529 28.8905 25.4191C28.9624 25.3196 29.0068 25.2028 29.019 25.0807C29.0312 24.9585 29.0109 24.8352 28.96 24.7235L27.5687 21.6765C27.8068 21.1908 28.0159 20.6913 28.1948 20.1808L31.3531 19.033C31.4696 18.9896 31.5724 18.9157 31.6507 18.819C31.729 18.7224 31.78 18.6065 31.7983 18.4835C31.9321 17.6624 31.9995 16.8319 32 16C32 15.8155 31.9267 15.6385 31.7963 15.5081C31.6658 15.3776 31.4889 15.3043 31.3044 15.3043Z" fill="#341472"/>
</g>
<defs>
<clipPath id="clip0_3386_1714">
<rect width="32" height="32" fill="white"/>
</clipPath>
</defs>
</svg>
