<svg width="32" height="32" viewBox="0 0 32 32" fill="none" xmlns="http://www.w3.org/2000/svg">
<g clip-path="url(#clip0_3386_1747)">
<path d="M29.0435 21.0435H25.447C25.3 20.5426 24.995 20.1027 24.5775 19.7892C24.1601 19.4758 23.6525 19.3057 23.1305 19.3044C22.8149 19.3047 22.5026 19.3686 22.2122 19.4922L18.9148 15.4018C18.8389 15.3082 18.7401 15.2359 18.6279 15.192C18.5157 15.1481 18.394 15.1341 18.2748 15.1513C18.1553 15.1689 18.0424 15.2172 17.9473 15.2916C17.8521 15.366 17.778 15.4639 17.7322 15.5757L13.4192 26.2818L10.8731 23.1165C11.1575 22.7087 11.3082 22.2225 11.3044 21.7252C11.3024 21.1437 11.0917 20.5823 10.7107 20.143C10.3297 19.7037 9.80365 19.4157 9.22827 19.3315C8.6529 19.2472 8.0664 19.3723 7.57544 19.6839C7.08449 19.9956 6.7217 20.4731 6.55306 21.0296H2.95654V22.4209H6.55306C6.64852 22.7463 6.81127 23.048 7.03077 23.3064C7.25026 23.5649 7.52161 23.7744 7.82723 23.9213C8.13285 24.0682 8.46592 24.1493 8.80487 24.1592C9.14382 24.1692 9.48108 24.1079 9.7948 23.9792L13.0852 28.0696C13.15 28.1494 13.2316 28.2139 13.3242 28.2584C13.4168 28.3029 13.5181 28.3263 13.6209 28.327H13.7252C13.8455 28.3088 13.9589 28.2594 14.0541 28.1837C14.1493 28.108 14.223 28.0087 14.2678 27.8957L18.5809 17.1896L21.127 20.3548C20.9277 20.6431 20.7933 20.9711 20.7328 21.3163C20.6724 21.6615 20.6874 22.0157 20.7768 22.3546C20.8663 22.6934 21.028 23.0089 21.2509 23.2793C21.4738 23.5498 21.7526 23.7687 22.0682 23.9212C22.3838 24.0736 22.7286 24.1559 23.079 24.1625C23.4294 24.169 23.777 24.0996 24.0981 23.9591C24.4191 23.8185 24.7059 23.6101 24.9387 23.3482C25.1716 23.0863 25.345 22.777 25.447 22.4418H29.0435V21.0435ZM8.86959 22.7826C8.66321 22.7826 8.46146 22.7214 8.28986 22.6068C8.11826 22.4921 7.98452 22.3291 7.90554 22.1385C7.82656 21.9478 7.8059 21.738 7.84616 21.5356C7.88642 21.3332 7.9858 21.1472 8.13174 21.0013C8.27767 20.8554 8.4636 20.756 8.66601 20.7157C8.86843 20.6755 9.07824 20.6961 9.26891 20.7751C9.45958 20.8541 9.62255 20.9878 9.73721 21.1594C9.85187 21.331 9.91306 21.5328 9.91306 21.7392C9.91306 22.0159 9.80313 22.2813 9.60744 22.477C9.41175 22.6727 9.14633 22.7826 8.86959 22.7826ZM23.1305 22.7826C22.9241 22.7826 22.7223 22.7214 22.5507 22.6068C22.3791 22.4921 22.2454 22.3291 22.1664 22.1385C22.0874 21.9478 22.0668 21.738 22.107 21.5356C22.1473 21.3332 22.2467 21.1472 22.3926 21.0013C22.5385 20.8554 22.7245 20.756 22.9269 20.7157C23.1293 20.6755 23.3391 20.6961 23.5298 20.7751C23.7204 20.8541 23.8834 20.9878 23.9981 21.1594C24.1127 21.331 24.1739 21.5328 24.1739 21.7392C24.1739 22.0159 24.064 22.2813 23.8683 22.477C23.6726 22.6727 23.4072 22.7826 23.1305 22.7826Z" fill="#E5E0FC"/>
<path d="M8.86962 22.087C9.83012 22.087 10.6088 21.3083 10.6088 20.3478C10.6088 19.3873 9.83012 18.6087 8.86962 18.6087C7.90913 18.6087 7.13049 19.3873 7.13049 20.3478C7.13049 21.3083 7.90913 22.087 8.86962 22.087Z" fill="#AC7FFF"/>
<path d="M23.1305 22.087C24.091 22.087 24.8696 21.3083 24.8696 20.3478C24.8696 19.3873 24.091 18.6087 23.1305 18.6087C22.17 18.6087 21.3914 19.3873 21.3914 20.3478C21.3914 21.3083 22.17 22.087 23.1305 22.087Z" fill="#AC7FFF"/>
<path d="M4.73741 5.21741H27.2626C27.7349 5.21741 28.1879 5.40503 28.5219 5.73901C28.8559 6.07299 29.0435 6.52596 29.0435 6.99828V10.6644H2.95654V6.99132C2.95838 6.52021 3.14682 6.06902 3.4806 5.73655C3.81438 5.40407 4.2663 5.2174 4.73741 5.21741Z" fill="#CFC0FF"/>
<path d="M29.0435 23.1374C28.859 23.1374 28.682 23.2107 28.5516 23.3411C28.4211 23.4716 28.3478 23.6485 28.3478 23.833V29.2174C28.3478 29.5864 28.2012 29.9403 27.9403 30.2012C27.6794 30.4621 27.3255 30.6087 26.9565 30.6087H5.04347C4.67448 30.6087 4.32059 30.4621 4.05967 30.2012C3.79875 29.9403 3.65217 29.5864 3.65217 29.2174V23.833C3.65217 23.6485 3.57888 23.4716 3.44842 23.3411C3.31796 23.2107 3.14101 23.1374 2.95652 23.1374C2.77202 23.1374 2.59508 23.2107 2.46462 23.3411C2.33416 23.4716 2.26086 23.6485 2.26086 23.833V29.2174C2.26086 29.9554 2.55403 30.6632 3.07587 31.185C3.59771 31.7068 4.30548 32 5.04347 32H26.9565C27.6945 32 28.4023 31.7068 28.9241 31.185C29.446 30.6632 29.7391 29.9554 29.7391 29.2174V23.833C29.7391 23.6485 29.6658 23.4716 29.5354 23.3411C29.4049 23.2107 29.228 23.1374 29.0435 23.1374Z" fill="#341472"/>
<path d="M2.95652 11.353H29.0435C29.228 11.353 29.4049 11.2797 29.5354 11.1493C29.6658 11.0188 29.7391 10.8419 29.7391 10.6574V7.30434C29.7391 6.56634 29.446 5.85858 28.9241 5.33674C28.4023 4.8149 27.6945 4.52173 26.9565 4.52173H5.04347C4.30548 4.52173 3.59771 4.8149 3.07587 5.33674C2.55403 5.85858 2.26086 6.56634 2.26086 7.30434V10.6574C2.26086 10.8419 2.33416 11.0188 2.46462 11.1493C2.59508 11.2797 2.77202 11.353 2.95652 11.353ZM3.65217 7.30434C3.65217 6.93534 3.79875 6.58146 4.05967 6.32054C4.32059 6.05962 4.67448 5.91303 5.04347 5.91303H26.9565C27.3255 5.91303 27.6794 6.05962 27.9403 6.32054C28.2012 6.58146 28.3478 6.93534 28.3478 7.30434V9.96173H3.65217V7.30434Z" fill="#341472"/>
<path d="M31.3043 19.6522H29.7391V14.1357C29.7391 13.9512 29.6658 13.7742 29.5354 13.6438C29.4049 13.5133 29.228 13.44 29.0435 13.44C28.859 13.44 28.682 13.5133 28.5516 13.6438C28.4211 13.7742 28.3478 13.9512 28.3478 14.1357V19.6522H25.447C25.3 19.1513 24.995 18.7113 24.5775 18.3979C24.16 18.0845 23.6525 17.9144 23.1304 17.913C22.8135 17.9152 22.4997 17.9766 22.2052 18.0939L18.9148 14.0104C18.8389 13.9168 18.7401 13.8446 18.6279 13.8007C18.5157 13.7568 18.394 13.7428 18.2748 13.76C18.1553 13.7775 18.0424 13.8259 17.9473 13.9003C17.8521 13.9747 17.778 14.0726 17.7322 14.1844L13.4191 24.8904L10.873 21.7252C11.1575 21.3173 11.3082 20.8312 11.3043 20.3339C11.3023 19.7524 11.0917 19.1909 10.7107 18.7516C10.3297 18.3123 9.80363 18.0244 9.22825 17.9401C8.65288 17.8559 8.06637 17.981 7.57542 18.2926C7.08447 18.6042 6.72168 19.0817 6.55304 19.6383H3.65217V14.1357C3.65217 13.9512 3.57888 13.7742 3.44842 13.6438C3.31796 13.5133 3.14102 13.44 2.95652 13.44C2.77202 13.44 2.59508 13.5133 2.46462 13.6438C2.33416 13.7742 2.26087 13.9512 2.26087 14.1357V19.6522H0.695652C0.511154 19.6522 0.334212 19.7255 0.203752 19.8559C0.0732917 19.9864 0 20.1633 0 20.3478C0 20.5323 0.0732917 20.7093 0.203752 20.8397C0.334212 20.9702 0.511154 21.0435 0.695652 21.0435H6.55304C6.6485 21.3689 6.81125 21.6706 7.03075 21.929C7.25024 22.1875 7.52159 22.397 7.82721 22.5439C8.13283 22.6908 8.4659 22.7719 8.80485 22.7818C9.1438 22.7918 9.48106 22.7304 9.79478 22.6017L13.0852 26.6852C13.1493 26.7663 13.2306 26.8321 13.3232 26.8778C13.4159 26.9235 13.5176 26.9481 13.6209 26.9496H13.7252C13.8455 26.9314 13.9589 26.882 14.0541 26.8063C14.1493 26.7306 14.223 26.6313 14.2678 26.5183L18.5809 15.8122L21.127 18.9774C20.9277 19.2657 20.7933 19.5937 20.7328 19.9389C20.6724 20.2841 20.6874 20.6383 20.7768 20.9772C20.8662 21.316 21.028 21.6315 21.2509 21.9019C21.4738 22.1724 21.7526 22.3913 22.0682 22.5438C22.3837 22.6962 22.7286 22.7785 23.079 22.7851C23.4293 22.7916 23.777 22.7222 24.098 22.5816C24.4191 22.4411 24.7059 22.2327 24.9387 21.9708C25.1716 21.7089 25.3449 21.3996 25.447 21.0644H31.3043C31.4888 21.0644 31.6658 20.9911 31.7962 20.8606C31.9267 20.7301 32 20.5532 32 20.3687C32 20.1842 31.9267 20.0073 31.7962 19.8768C31.6658 19.7463 31.4888 19.673 31.3043 19.673V19.6522ZM7.82609 20.3478C7.82609 20.1414 7.88729 19.9397 8.00194 19.7681C8.1166 19.5965 8.27957 19.4628 8.47024 19.3838C8.66091 19.3048 8.87072 19.2841 9.07314 19.3244C9.27555 19.3647 9.46148 19.464 9.60742 19.61C9.75335 19.7559 9.85273 19.9418 9.89299 20.1443C9.93326 20.3467 9.91259 20.5565 9.83361 20.7471C9.75463 20.9378 9.62089 21.1008 9.44929 21.2154C9.27769 21.3301 9.07595 21.3913 8.86957 21.3913C8.59282 21.3913 8.3274 21.2814 8.13171 21.0857C7.93602 20.89 7.82609 20.6246 7.82609 20.3478ZM23.1304 21.3913C22.9241 21.3913 22.7223 21.3301 22.5507 21.2154C22.3791 21.1008 22.2454 20.9378 22.1664 20.7471C22.0874 20.5565 22.0667 20.3467 22.107 20.1443C22.1473 19.9418 22.2467 19.7559 22.3926 19.61C22.5385 19.464 22.7244 19.3647 22.9269 19.3244C23.1293 19.2841 23.3391 19.3048 23.5298 19.3838C23.7204 19.4628 23.8834 19.5965 23.9981 19.7681C24.1127 19.9397 24.1739 20.1414 24.1739 20.3478C24.1739 20.6246 24.064 20.89 23.8683 21.0857C23.6726 21.2814 23.4072 21.3913 23.1304 21.3913Z" fill="#341472"/>
</g>
<defs>
<clipPath id="clip0_3386_1747">
<rect width="32" height="32" fill="white"/>
</clipPath>
</defs>
</svg>
