<svg width="24" height="24" viewBox="0 0 24 24" fill="none" xmlns="http://www.w3.org/2000/svg">
<path d="M6.5 9.5H0" stroke="white" stroke-miterlimit="10"/>
<path d="M9.5 9.5H15.5C16.6 9.5 17.5 10.4 17.5 11.5C17.5 12.6 16.6 13.5 15.5 13.5H8.5C7.4 13.5 6.5 14.4 6.5 15.5C6.5 16.6 7.4 17.5 8.5 17.5H15" stroke="white" stroke-miterlimit="10"/>
<path d="M17.5 17.5H24" stroke="white" stroke-miterlimit="10"/>
<path d="M6.5 6V1" stroke="white" stroke-miterlimit="10"/>
<path d="M17.5 6V1" stroke="white" stroke-miterlimit="10"/>
<path d="M8 11C8.82843 11 9.5 10.3284 9.5 9.5C9.5 8.67157 8.82843 8 8 8C7.17157 8 6.5 8.67157 6.5 9.5C6.5 10.3284 7.17157 11 8 11Z" stroke="white" stroke-miterlimit="10"/>
<path d="M16 19C16.8284 19 17.5 18.3284 17.5 17.5C17.5 16.6716 16.8284 16 16 16C15.1716 16 14.5 16.6716 14.5 17.5C14.5 18.3284 15.1716 19 16 19Z" stroke="white" stroke-miterlimit="10"/>
<path d="M21.5 17.88V19.5C21.5 21.16 20.16 22.5 18.5 22.5H2.5V12" stroke="white" stroke-miterlimit="10"/>
<path d="M2.5 9.12V3.5H21.5V15" stroke="white" stroke-miterlimit="10"/>
</svg>
