<svg width="24" height="24" viewBox="0 0 24 24" fill="none" xmlns="http://www.w3.org/2000/svg">
<g clip-path="url(#clip0_7001_12911)">
<path d="M12 3.5C12.8284 3.5 13.5 2.82843 13.5 2C13.5 1.17157 12.8284 0.5 12 0.5C11.1716 0.5 10.5 1.17157 10.5 2C10.5 2.82843 11.1716 3.5 12 3.5Z" stroke="#171321" stroke-miterlimit="10"/>
<path d="M2 13.5C2.82843 13.5 3.5 12.8284 3.5 12C3.5 11.1716 2.82843 10.5 2 10.5C1.17157 10.5 0.5 11.1716 0.5 12C0.5 12.8284 1.17157 13.5 2 13.5Z" stroke="#171321" stroke-miterlimit="10"/>
<path d="M2 23.5C2.82843 23.5 3.5 22.8284 3.5 22C3.5 21.1716 2.82843 20.5 2 20.5C1.17157 20.5 0.5 21.1716 0.5 22C0.5 22.8284 1.17157 23.5 2 23.5Z" stroke="#171321" stroke-miterlimit="10"/>
<path d="M22 13.5C22.8284 13.5 23.5 12.8284 23.5 12C23.5 11.1716 22.8284 10.5 22 10.5C21.1716 10.5 20.5 11.1716 20.5 12C20.5 12.8284 21.1716 13.5 22 13.5Z" stroke="#171321" stroke-miterlimit="10"/>
<path d="M2.13989 13.6899C2.50989 15.8699 3.57989 17.7999 5.11989 19.2599" stroke="#171321" stroke-miterlimit="10"/>
<path d="M10.2199 2.16003C6.08989 2.90003 2.84989 6.17003 2.13989 10.31" stroke="#171321" stroke-miterlimit="10"/>
<path d="M21.86 10.31C21.16 6.17003 17.9 2.89003 13.77 2.16003" stroke="#171321" stroke-miterlimit="10"/>
<path d="M3.5 21.9999H12C16.95 21.9999 21.05 18.4099 21.86 13.6899" stroke="#171321" stroke-miterlimit="10"/>
<path d="M18.5 22H22.73" stroke="#171321" stroke-miterlimit="10"/>
<path d="M21.6299 20.35L23.2799 22L21.6299 23.65" stroke="#171321" stroke-miterlimit="10"/>
<path d="M8.67993 11.97L10.7199 14.01L15.3199 9.42004" stroke="#171321" stroke-miterlimit="10"/>
</g>
<defs>
<clipPath id="clip0_7001_12911">
<rect width="24" height="24" fill="white"/>
</clipPath>
</defs>
</svg>
