<svg width="32" height="32" viewBox="0 0 32 32" fill="none" xmlns="http://www.w3.org/2000/svg">
<g clip-path="url(#clip0_110_627)">
<path d="M23.3953 19.632C23.3953 11.8464 9.20325 11.8208 9.20325 19.632H23.3953Z" fill="#AC7FFF"/>
<path d="M16.3008 11.1487C18.1865 11.1487 19.7152 9.62007 19.7152 7.73435C19.7152 5.84863 18.1865 4.31995 16.3008 4.31995C14.415 4.31995 12.8864 5.84863 12.8864 7.73435C12.8864 9.62007 14.415 11.1487 16.3008 11.1487Z" fill="#AC7FFF"/>
<path d="M2.17601 27.6769C1.76864 27.6769 1.37795 27.515 1.0899 27.227C0.801843 26.9389 0.640015 26.5482 0.640015 26.1409V24.0225H31.36V26.1409C31.36 26.5482 31.1982 26.9389 30.9101 27.227C30.6221 27.515 30.2314 27.6769 29.824 27.6769H2.17601Z" fill="#AFA3C6"/>
<path d="M3.3568 24.6624C3.18706 24.6624 3.02427 24.595 2.90425 24.4749C2.78423 24.3549 2.7168 24.1921 2.7168 24.0224V8.9824C2.71764 8.40554 2.94717 7.85256 3.35507 7.44467C3.76296 7.03677 4.31595 6.80724 4.8928 6.8064H9.8848C10.0545 6.8064 10.2173 6.87382 10.3373 6.99385C10.4574 7.11387 10.5248 7.27666 10.5248 7.4464C10.5248 7.61614 10.4574 7.77892 10.3373 7.89894C10.2173 8.01897 10.0545 8.0864 9.8848 8.0864H4.8928C4.65516 8.0864 4.42726 8.1808 4.25923 8.34883C4.0912 8.51686 3.9968 8.74476 3.9968 8.9824V24.0224C3.9968 24.1921 3.92937 24.3549 3.80935 24.4749C3.68932 24.595 3.52654 24.6624 3.3568 24.6624Z" fill="#380D75"/>
<path d="M28.6431 24.6624C28.4734 24.6624 28.3106 24.595 28.1906 24.4749C28.0706 24.3549 28.0031 24.1921 28.0031 24.0224V8.9824C28.0031 8.74476 27.9087 8.51686 27.7407 8.34883C27.5727 8.1808 27.3448 8.0864 27.1071 8.0864H22.2591C22.0894 8.0864 21.9266 8.01897 21.8066 7.89894C21.6866 7.77892 21.6191 7.61614 21.6191 7.4464C21.6191 7.27666 21.6866 7.11387 21.8066 6.99385C21.9266 6.87382 22.0894 6.8064 22.2591 6.8064H27.1071C27.684 6.80724 28.237 7.03677 28.6449 7.44467C29.0528 7.85256 29.2823 8.40554 29.2831 8.9824V24.0224C29.2831 24.1921 29.2157 24.3549 29.0957 24.4749C28.9757 24.595 28.8129 24.6624 28.6431 24.6624Z" fill="#380D75"/>
<path d="M29.824 28.3168H2.176C1.59915 28.316 1.04617 28.0865 0.638271 27.6786C0.230375 27.2707 0.000846445 26.7177 0 26.1408L0 24.0224C0 23.8527 0.0674284 23.6899 0.187452 23.5699C0.307475 23.4499 0.470261 23.3824 0.64 23.3824H31.36C31.5297 23.3824 31.6925 23.4499 31.8125 23.5699C31.9326 23.6899 32 23.8527 32 24.0224V26.1408C31.9992 26.7177 31.7696 27.2707 31.3617 27.6786C30.9538 28.0865 30.4009 28.316 29.824 28.3168ZM1.28 24.6624V26.1408C1.28 26.3785 1.3744 26.6064 1.54243 26.7744C1.71046 26.9424 1.93837 27.0368 2.176 27.0368H29.824C30.0616 27.0368 30.2895 26.9424 30.4576 26.7744C30.6256 26.6064 30.72 26.3785 30.72 26.1408V24.6624H1.28Z" fill="#380D75"/>
<path d="M23.3952 20.272H9.20319C9.03345 20.272 8.87066 20.2045 8.75064 20.0845C8.63062 19.9645 8.56319 19.8017 8.56319 19.632C8.543 18.6731 8.75824 17.724 9.19004 16.8676C9.62184 16.0113 10.257 15.2738 11.04 14.72C12.5785 13.6476 14.4161 13.0877 16.2912 13.12C20.1312 13.12 24.0352 15.36 24.0352 19.6096C24.0382 19.6955 24.0239 19.7811 23.9931 19.8614C23.9622 19.9416 23.9156 20.0149 23.8559 20.0767C23.7961 20.1385 23.7245 20.1877 23.6454 20.2212C23.5663 20.2548 23.4812 20.272 23.3952 20.272ZM9.88159 18.992H22.72C22.3424 15.856 19.2 14.4224 16.2912 14.4224C14.6946 14.3879 13.1275 14.8558 11.8112 15.76C11.2793 16.1317 10.8324 16.6119 10.4997 17.169C10.1671 17.7261 9.95644 18.3475 9.88159 18.992Z" fill="#380D75"/>
<path d="M16.3008 11.7889C15.4987 11.7895 14.7146 11.5522 14.0474 11.1071C13.3802 10.662 12.8601 10.029 12.5527 9.28822C12.2453 8.54744 12.1646 7.73213 12.3207 6.94544C12.4768 6.15876 12.8627 5.43603 13.4295 4.86869C13.9964 4.30136 14.7189 3.91489 15.5054 3.75819C16.292 3.60149 17.1073 3.6816 17.8484 3.98837C18.5894 4.29515 19.2228 4.81481 19.6685 5.48162C20.1141 6.14843 20.352 6.93243 20.352 7.73445C20.3511 8.80893 19.9241 9.83921 19.1647 10.5993C18.4052 11.3594 17.3752 11.7872 16.3008 11.7889ZM16.3008 4.96325C15.7518 4.96262 15.2149 5.12488 14.7582 5.42949C14.3015 5.7341 13.9454 6.16737 13.735 6.67446C13.5246 7.18154 13.4694 7.73965 13.5763 8.27813C13.6833 8.81661 13.9476 9.31125 14.3358 9.69945C14.724 10.0876 15.2186 10.352 15.7571 10.4589C16.2956 10.5658 16.8537 10.5106 17.3608 10.3003C17.8678 10.0899 18.3011 9.73377 18.6057 9.27703C18.9103 8.82029 19.0726 8.28345 19.072 7.73445C19.0703 7.00001 18.7778 6.29612 18.2584 5.77679C17.7391 5.25745 17.0352 4.96494 16.3008 4.96325Z" fill="#380D75"/>
</g>
<defs>
<clipPath id="clip0_110_627">
<rect width="32" height="32" fill="white"/>
</clipPath>
</defs>
</svg>
