<svg width="24" height="24" viewBox="0 0 24 24" fill="none" xmlns="http://www.w3.org/2000/svg">
<g clip-path="url(#clip0_346_367)">
<path d="M12 15.1704C15.3137 15.1704 18 12.4841 18 9.17041C18 5.8567 15.3137 3.17041 12 3.17041C8.68629 3.17041 6 5.8567 6 9.17041C6 12.4841 8.68629 15.1704 12 15.1704Z" fill="#FCA326"/>
<path d="M12 15.648C10.7184 15.648 9.46556 15.2679 8.39993 14.5559C7.3343 13.8439 6.50374 12.8318 6.01328 11.6478C5.52283 10.4637 5.3945 9.1608 5.64453 7.90381C5.89457 6.64681 6.51173 5.49218 7.41797 4.58594C8.32421 3.67969 9.47884 3.06253 10.7358 2.8125C11.9928 2.56247 13.2957 2.6908 14.4798 3.18125C15.6639 3.67171 16.6759 4.50227 17.3879 5.5679C18.1 6.63353 18.48 7.88637 18.48 9.16799C18.48 9.29529 18.4294 9.41738 18.3394 9.5074C18.2494 9.59742 18.1273 9.64799 18 9.64799C17.8727 9.64799 17.7506 9.59742 17.6606 9.5074C17.5706 9.41738 17.52 9.29529 17.52 9.16799C17.5196 7.79932 17.0108 6.47961 16.0922 5.46496C15.1737 4.45031 13.9109 3.81309 12.5491 3.67695C11.1872 3.54082 9.82329 3.91549 8.72207 4.72825C7.62086 5.54101 6.86085 6.73389 6.58955 8.0754C6.31826 9.41691 6.55501 10.8114 7.25387 11.9882C7.95272 13.165 9.06385 14.0402 10.3716 14.4439C11.6794 14.8477 13.0905 14.7512 14.3311 14.1732C15.5718 13.5952 16.5534 12.577 17.0856 11.316C17.1074 11.2543 17.1416 11.1978 17.1861 11.1498C17.2305 11.1018 17.2843 11.0634 17.3441 11.037C17.404 11.0106 17.4686 10.9966 17.534 10.996C17.5994 10.9955 17.6642 11.0083 17.7245 11.0337C17.7848 11.0591 17.8392 11.0965 17.8845 11.1437C17.9298 11.1909 17.9649 11.2468 17.9878 11.3081C18.0107 11.3694 18.0208 11.4347 18.0176 11.5C18.0143 11.5653 17.9977 11.6293 17.9688 11.688C17.4734 12.8617 16.6429 13.8634 15.5813 14.5677C14.5197 15.272 13.274 15.6478 12 15.648Z" fill="#380D75"/>
<path d="M16.7544 23.9999C16.6705 24.0012 16.5878 23.9805 16.5144 23.9399L12 21.4391L7.47838 23.9399C7.4051 23.9822 7.32192 24.0044 7.2373 24.0042C7.15267 24.004 7.0696 23.9815 6.9965 23.9389C6.92341 23.8962 6.86288 23.835 6.82106 23.7614C6.77924 23.6879 6.75762 23.6045 6.75838 23.5199V18.1343C6.75838 18.0713 6.7708 18.0089 6.79492 17.9506C6.81904 17.8924 6.8544 17.8395 6.89897 17.7949C6.94354 17.7503 6.99646 17.715 7.05469 17.6909C7.11293 17.6667 7.17535 17.6543 7.23838 17.6543C7.30142 17.6543 7.36383 17.6667 7.42207 17.6909C7.48031 17.715 7.53322 17.7503 7.57779 17.7949C7.62236 17.8395 7.65772 17.8924 7.68184 17.9506C7.70597 18.0089 7.71838 18.0713 7.71838 18.1343V22.6943L11.76 20.4719C11.8312 20.4324 11.9113 20.4117 11.9928 20.4117C12.0742 20.4117 12.1543 20.4324 12.2256 20.4719L16.2672 22.7063V16.0127C16.2672 15.8854 16.3178 15.7633 16.4078 15.6733C16.4978 15.5833 16.6199 15.5327 16.7472 15.5327C16.8745 15.5327 16.9966 15.5833 17.0866 15.6733C17.1766 15.7633 17.2272 15.8854 17.2272 16.0127V23.5199C17.2267 23.6037 17.2043 23.6859 17.1622 23.7583C17.12 23.8307 17.0597 23.8908 16.9872 23.9327C16.9169 23.9754 16.8366 23.9986 16.7544 23.9999Z" fill="#171321"/>
<path d="M11.1096 11.4119C10.9839 11.414 10.8624 11.3666 10.7712 11.2799L9.48002 9.98153C9.38996 9.89146 9.33936 9.7693 9.33936 9.64193C9.33936 9.51455 9.38996 9.39239 9.48002 9.30233C9.57009 9.21226 9.69225 9.16166 9.81962 9.16166C9.947 9.16166 10.0692 9.21226 10.1592 9.30233L11.1192 10.2623L13.8408 7.52153C13.9309 7.43146 14.053 7.38086 14.1804 7.38086C14.3078 7.38086 14.43 7.43146 14.52 7.52153C14.6101 7.61159 14.6607 7.73375 14.6607 7.86113C14.6607 7.9885 14.6101 8.11066 14.52 8.20073L11.4504 11.2799C11.3587 11.3671 11.2362 11.4146 11.1096 11.4119Z" fill="#171321"/>
<path d="M12 18.3384C11.1648 18.3384 10.5072 17.7672 9.92641 17.2632C9.63558 16.9761 9.30402 16.7335 8.94241 16.5432C8.53385 16.4141 8.10845 16.3462 7.68001 16.3416C6.92641 16.284 6.07441 16.2192 5.52001 15.6528C4.96561 15.0864 4.89121 14.2344 4.83361 13.4928C4.82596 13.0656 4.7556 12.6419 4.62481 12.2352C4.43448 11.8736 4.19187 11.542 3.90481 11.2512C3.40081 10.6728 2.82721 10.0152 2.82721 9.18C2.82721 8.3448 3.40081 7.6872 3.90481 7.1064C4.19187 6.81557 4.43448 6.48401 4.62481 6.1224C4.75581 5.71573 4.82616 5.29198 4.83361 4.8648C4.89121 4.1136 4.95601 3.2616 5.52001 2.7048C6.08401 2.148 6.93361 2.0568 7.68001 1.9992C8.10639 1.99155 8.52932 1.9212 8.93521 1.7904C9.29669 1.59986 9.62823 1.35728 9.91921 1.0704C10.5072 0.5712 11.1648 0 12 0C12.8352 0 13.4928 0.5712 14.0736 1.0752C14.3646 1.36208 14.6961 1.60466 15.0576 1.7952C15.4661 1.92507 15.8915 1.99381 16.32 1.9992C17.0736 2.0568 17.9256 2.1216 18.48 2.6856C19.0344 3.2496 19.1088 4.104 19.1664 4.8456C19.1739 5.27278 19.2442 5.69653 19.3752 6.1032C19.5655 6.46481 19.8082 6.79637 20.0952 7.0872C20.6016 7.668 21.1728 8.3256 21.1728 9.1608C21.1728 9.996 20.6016 10.6536 20.0952 11.232C19.8082 11.5228 19.5655 11.8544 19.3752 12.216C19.2444 12.6227 19.1741 13.0464 19.1664 13.4736C19.1088 14.2248 19.044 15.0792 18.48 15.6336C17.916 16.188 17.0616 16.2648 16.32 16.3224C15.8936 16.33 15.4707 16.4004 15.0648 16.5312C14.7032 16.7215 14.3716 16.9641 14.0808 17.2512C13.4928 17.76 12.8352 18.3384 12 18.3384ZM12 0.96C11.52 0.96 11.0544 1.368 10.56 1.8C10.1931 2.15638 9.77186 2.45208 9.31201 2.676C8.81313 2.8503 8.28994 2.94506 7.76161 2.9568C7.11841 3.0048 6.51121 3.0504 6.19681 3.3648C5.88241 3.6792 5.83681 4.2864 5.78881 4.9296C5.7763 5.45805 5.68073 5.98125 5.50561 6.48C5.28164 6.93851 4.98683 7.35886 4.63201 7.7256C4.19761 8.2248 3.78961 8.6856 3.78961 9.1656C3.78961 9.6456 4.19761 10.1112 4.62961 10.6056C4.9854 10.9721 5.28105 11.3924 5.50561 11.8512C5.67974 12.351 5.77449 12.8749 5.78641 13.404C5.83441 14.0472 5.88241 14.6544 6.19441 14.9664C6.50641 15.2784 7.11601 15.3264 7.75921 15.3768C8.28741 15.3878 8.8106 15.4817 9.30961 15.6552C9.77029 15.882 10.1923 16.18 10.56 16.5384C11.0568 16.9704 11.52 17.3784 12 17.3784C12.48 17.3784 12.9456 16.9704 13.44 16.5384C13.8075 16.1828 14.2287 15.8872 14.688 15.6624C15.187 15.4889 15.7102 15.395 16.2384 15.384C16.8816 15.3336 17.4888 15.288 17.8032 14.9736C18.1176 14.6592 18.1632 14.0544 18.2112 13.4112C18.2231 12.8821 18.3179 12.3582 18.492 11.8584C18.7166 11.4002 19.0113 10.98 19.3656 10.6128C19.8 10.116 20.208 9.6528 20.208 9.1728C20.208 8.6928 19.8 8.2272 19.3656 7.7328C19.011 7.3637 18.717 6.94089 18.4944 6.48C18.3201 5.98112 18.2254 5.45792 18.2136 4.9296C18.1656 4.2864 18.1176 3.6792 17.8056 3.3648C17.4936 3.0504 16.884 3.0048 16.2408 2.9568C15.7125 2.94506 15.1893 2.8503 14.6904 2.676C14.2297 2.4523 13.8076 2.15659 13.44 1.8C12.9456 1.368 12.48 0.96 12 0.96Z" fill="#171321"/>
</g>
<defs>
<clipPath id="clip0_346_367">
<rect width="24" height="24" fill="white"/>
</clipPath>
</defs>
</svg>
