<svg width="19" height="18" viewBox="0 0 19 18" fill="none" xmlns="http://www.w3.org/2000/svg">
<path fill-rule="evenodd" clip-rule="evenodd" d="M10.25 1.125C10.25 0.710786 9.91421 0.375 9.5 0.375C9.08579 0.375 8.75 0.710786 8.75 1.125V8.25H1.625C1.21079 8.25 0.875 8.58579 0.875 9C0.875 9.41421 1.21079 9.75 1.625 9.75H8.75V16.875C8.75 17.2892 9.08579 17.625 9.5 17.625C9.91421 17.625 10.25 17.2892 10.25 16.875V9.75H17.375C17.7892 9.75 18.125 9.41421 18.125 9C18.125 8.58579 17.7892 8.25 17.375 8.25H10.25V1.125Z" fill="#171321"/>
</svg>
